^C:\USERS\USERNAME\DOCUMENTS\VISUAL STUDIO 2013\PROJECTS\PVGTEST\PVGTEST\SOURCE.CPP
C:\USERS\USERNAME\DOCUMENTS\VISUAL STUDIO 2013\PROJECTS\PVGTEST\PVGTEST\DEBUG\VC120.PDB
C:\USERS\USERNAME\DOCUMENTS\VISUAL STUDIO 2013\PROJECTS\PVGTEST\PVGTEST\DEBUG\VC120.IDB
C:\USERS\USERNAME\DOCUMENTS\VISUAL STUDIO 2013\PROJECTS\PVGTEST\PVGTEST\DEBUG\SOURCE.OBJ
^C:\USERS\USERNAME\DOCUMENTS\VISUAL STUDIO 2013\PROJECTS\PVGTEST\PVGTEST\MANAGER.CPP|C:\USERS\USERNAME\DOCUMENTS\VISUAL STUDIO 2013\PROJECTS\PVGTEST\PVGTEST\SOURCE.CPP
C:\USERS\USERNAME\DOCUMENTS\VISUAL STUDIO 2013\PROJECTS\PVGTEST\PVGTEST\DEBUG\VC120.PDB
C:\USERS\USERNAME\DOCUMENTS\VISUAL STUDIO 2013\PROJECTS\PVGTEST\PVGTEST\DEBUG\VC120.IDB
C:\USERS\USERNAME\DOCUMENTS\VISUAL STUDIO 2013\PROJECTS\PVGTEST\PVGTEST\DEBUG\SOURCE.OBJ
^C:\USERS\USERNAME\DOCUMENTS\VISUAL STUDIO 2013\PROJECTS\PVGTEST\PVGTEST\MANAGER.CPP
C:\USERS\USERNAME\DOCUMENTS\VISUAL STUDIO 2013\PROJECTS\PVGTEST\PVGTEST\DEBUG\VC120.PDB
C:\USERS\USERNAME\DOCUMENTS\VISUAL STUDIO 2013\PROJECTS\PVGTEST\PVGTEST\DEBUG\VC120.IDB
C:\USERS\USERNAME\DOCUMENTS\VISUAL STUDIO 2013\PROJECTS\PVGTEST\PVGTEST\DEBUG\MANAGER.OBJ
^C:\USERS\USERNAME\PVGTEST\PVGTEST\MANAGER.CPP|C:\USERS\USERNAME\PVGTEST\PVGTEST\RESULT.CPP|C:\USERS\USERNAME\PVGTEST\PVGTEST\SOURCE.CPP
C:\USERS\USERNAME\PVGTEST\PVGTEST\DEBUG\VC120.PDB
C:\USERS\USERNAME\PVGTEST\PVGTEST\DEBUG\VC120.IDB
C:\USERS\USERNAME\PVGTEST\PVGTEST\DEBUG\RESULT.OBJ
C:\USERS\USERNAME\PVGTEST\PVGTEST\DEBUG\SOURCE.OBJ
C:\USERS\USERNAME\PVGTEST\PVGTEST\DEBUG\MANAGER.OBJ
^C:\USERS\USERNAME\PVGTEST\PVGTEST\RESULT.CPP
C:\USERS\USERNAME\PVGTEST\PVGTEST\DEBUG\VC120.PDB
^C:\USERS\USERNAME\PVGTEST\PVGTEST\SOURCE.CPP
C:\USERS\USERNAME\PVGTEST\PVGTEST\DEBUG\VC120.PDB
C:\USERS\USERNAME\PVGTEST\PVGTEST\DEBUG\VC120.IDB
^C:\USERS\USERNAME\PVGTEST\PVGTEST\MANAGER.CPP
C:\USERS\USERNAME\PVGTEST\PVGTEST\DEBUG\VC120.PDB
C:\USERS\USERNAME\PVGTEST\PVGTEST\DEBUG\VC120.IDB
C:\USERS\USERNAME\PVGTEST\PVGTEST\DEBUG\MANAGER.OBJ
^C:\USERS\USERNAME\PVGTEST\PVGTEST\MANAGER.CPP|C:\USERS\USERNAME\PVGTEST\PVGTEST\SOURCE.CPP
C:\USERS\USERNAME\PVGTEST\PVGTEST\DEBUG\VC120.PDB
C:\USERS\USERNAME\PVGTEST\PVGTEST\DEBUG\VC120.IDB
C:\USERS\USERNAME\PVGTEST\PVGTEST\DEBUG\MANAGER.OBJ
C:\USERS\USERNAME\PVGTEST\PVGTEST\DEBUG\SOURCE.OBJ
^C:\USERS\USERNAME\PVGTEST\PVGTEST\MANAGER.CPP|C:\USERS\USERNAME\PVGTEST\PVGTEST\SOURCE.CPP|C:\USERS\USERNAME\PVGTEST\PVGTEST\STRINGSPLITER.CPP
C:\USERS\USERNAME\PVGTEST\PVGTEST\DEBUG\VC120.PDB
C:\USERS\USERNAME\PVGTEST\PVGTEST\DEBUG\VC120.IDB
C:\USERS\USERNAME\PVGTEST\PVGTEST\DEBUG\MANAGER.OBJ
^C:\USERS\USERNAME\PVGTEST\PVGTEST\STRINGSPLITER.CPP
C:\USERS\USERNAME\PVGTEST\PVGTEST\DEBUG\VC120.PDB
C:\USERS\USERNAME\PVGTEST\PVGTEST\DEBUG\VC120.IDB
C:\USERS\USERNAME\PVGTEST\PVGTEST\DEBUG\STRINGSPLITER.OBJ
^C:\USERS\USERNAME\PVGTEST\PVGTEST\SOURCE.CPP|C:\USERS\USERNAME\PVGTEST\PVGTEST\STRINGSPLITER.CPP
C:\USERS\USERNAME\PVGTEST\PVGTEST\DEBUG\VC120.PDB
C:\USERS\USERNAME\PVGTEST\PVGTEST\DEBUG\VC120.IDB
C:\USERS\USERNAME\PVGTEST\PVGTEST\DEBUG\STRINGSPLITER.OBJ
C:\USERS\USERNAME\PVGTEST\PVGTEST\DEBUG\SOURCE.OBJ
^C:\USERS\USERNAME\PVGTEST\PVGTEST\EASYBMP.CPP|C:\USERS\USERNAME\PVGTEST\PVGTEST\MANAGER.CPP
C:\USERS\USERNAME\PVGTEST\PVGTEST\DEBUG\VC120.PDB
C:\USERS\USERNAME\PVGTEST\PVGTEST\DEBUG\VC120.IDB
C:\USERS\USERNAME\PVGTEST\PVGTEST\DEBUG\EASYBMP.OBJ
C:\USERS\USERNAME\PVGTEST\PVGTEST\DEBUG\MANAGER.OBJ
^C:\USERS\USERNAME\PVGTEST\PVGTEST\EASYBMP.CPP
C:\USERS\USERNAME\PVGTEST\PVGTEST\DEBUG\VC120.PDB
